…
```
## [1] 7597
```

```r
# merge
meta_ds <- left_join(meta_ds_clusters, meta_ds_sdrf, by = c('Cell' = 'Source_Name')) %>%
  rename(Cell_ID = Cell)
meta_ds
```

```
## # A tibble: 5,591 x 16
##    final_cluster Cell_ID Fetus location annotation platform ENA_SAMPLE
##            <dbl> <chr>   <chr> <chr>    <chr>      <chr>    <chr>     
##  1             0 24087_~ F13   Decidua  dS1        DropSeq  ERS2332207
##  2             0 23728_~ F10   Decidua  dS1        DropSeq  ERS2331637
##  3             0 24087_~ F13   Decidua  dS1        DropSeq  ERS2335036
##  4             0 23728_~ F10   Decidua  dS1        DropSeq  ERS2332714
##  5             0 24087_~ F13   Decidua  dS1        DropSeq  ERS2328494
##  6             0 24088_~ F10   Decidua  dS1        DropSeq  ERS2328250
##  7             0 23728_~ F10   Decidua  dS1        DropSeq  ERS2329158
##  8             0 23728_~ F10   Decidua  dS1        DropSeq  ERS2334811
##  9             0 24088_~ F10   Decidua  dS1        DropSeq  ERS2328157
## 10             0 23728_~ F10   Decidua  dS1        DropSeq  ERS2328068
## # ... with 5,581 more rows, and 9 more variables: BioSD_SAMPLE <chr>,
## #   individual <chr>, sex <chr>, disease <chr>,
## #   clinical_information <chr>, cell_gating <chr>,
## #   inferred_cell_type <chr>, submitted_annotation <chr>,
## #   single_cell_quality <chr>
```
…
# merge meta
meta <- bind_rows(meta_10x, meta_ds) %>%
  
  #reorganize column order
  select(-platform, -ENA_SAMPLE, -BioSD_SAMPLE, # move these to the back
         platform, ENA_SAMPLE, BioSD_SAMPLE)
meta # 70325 cells
```

```
## # A tibble: 70,325 x 19
##    final_cluster Run   UMI_ID Fetus location annotation Cell_ID individual
##            <dbl> <chr> <chr>  <chr> <chr>    <chr>      <chr>   <chr>     
##  1             0 FCA7~ TCTGG~ F20   Decidua  dS1        FCA716~ D7        
##  2             0 FCA7~ GGAAC~ F20   Decidua  dS1        FCA716~ D7        
##  3             0 FCA7~ ACTAT~ F27   Decidua  dS1        FCA719~ D9        
##  4             0 FCA7~ AAAGC~ F36   Decidua  dS1        FCA747~ D10       
##  5             0 FCA7~ CTCGA~ F25   Decidua  dS1        FCA719~ D8        
##  6             0 FCA7~ ACACC~ F40   Decidua  dS1        FCA751~ D12       
##  7             0 FCA7~ AGACG~ F20   Decidua  dS1        FCA716~ D7        
##  8             0 FCA7~ ACTAT~ F20   Decidua  dS1        FCA716~ D7        
##  9             0 FCA7~ GCGCG~ F20   Decidua  dS1        FCA716~ D7        
## 10             0 FCA7~ CACCA~ F20   Decidua  dS1        FCA716~ D7        
## # ... with 70,315 more rows, and 11 more variables: sex <chr>,
## #   disease <chr>, clinical_information <chr>, FACS_marker <chr>,
## #   cell_gating <chr>, inferred_cell_type <chr>,
## #   submitted_annotation <chr>, single_cell_quality <chr>, platform <chr>,
## #   ENA_SAMPLE <chr>, BioSD_SAMPLE <chr>
```
…
